[
  {
    "employer": "Stripe",
    "employer_image": "img/stripe.svg",
    "title": "Staff Engineer - Payments",
    "start_date": "October 2019",
    "end_date": null,
    "projects": [
      {
        "title": "Technical Lead for v1 Payments (Payment Flows)",
	"description": "Supporting the development and operations of Stripe's v1 payments stack, leading teams focused on operability, cost, and latency.",
	"start_date": "August 2022",
	"end_date": null,
	"technologies": [
	  "ruby",
	  "mongodb"
	]
      },
      {
        "title": "Payments Performance Rollout Tech Lead",
        "description": "I support an end-to-end rewrite of Stripe's Payments stack. I ask important questions like \"how do you know this works?\" and \"what if we tested this?\"",
        "start_date": "October 2021",
        "end_date": "July 2022",
        "technologies": [
          "ruby",
          "java",
          "mongodb",
          "mysql"
        ]
      },
      {
        "title": "Project Runway",
        "description": "Led a team across product and infrastructure to extend existing internal MongoDB ODM to support a new sharding scheme, doubling maximum write throughput per user.",
        "start_date": "November 2020",
        "end_date": "August 2020",
        "technologies": [
          "ruby",
          "golang",
          "mongodb"
        ]
      },
      {
        "title": "Afterpay Payment Method",
        "description": "Led a team of 5 across the US and Singapore to onboard Afterpay as a Payment Method for distribution by Stripe via the PaymentIntents platform.",
        "start_date": "January 2020",
        "end_date": "November 2020",
        "technologies": [
          "java",
          "ruby",
          "grpc",
          "mongodb"
        ]
      }
    ]
  },
  {
    "employer": "Snapchat",
    "employer_image": "img/snapchat.svg",
    "title": "Software Engineer - Infrastructure",
    "start_date": "August 2015",
    "end_date": "October 2019",
    "projects": [
      {
        "title": "Observability",
        "description": "Technical lead and owner of Snap’s observability platform, including metrics reporting libraries, ingestion and aggregation, storage, visualization, and monitoring/alerting.",
        "start_date": "",
        "end_date": "",
        "technologies": [
          "java",
          "python",
          "bash",
          "kubernetes",
          "bigtable",
          "graphite",
          "grafana",
          "Google Cloud Platform"
        ]
      },
      {
        "title": "Infrastructure",
        "description": "Addressing performance and cost of Snapchat backend services. Responsible for changes that resulted in cost reductions of $100k per day.",
        "start_date": "August 2014",
        "end_date": "September 2019",
        "technologies": [
          "java",
          "python",
          "bash",
          "Google Cloud Platform"
        ]
      }
    ]
  },
  {
    "employer": "Mycroft.ai",
    "employer_image": "img/mycroft.png",
    "title": "Software Development Lead",
    "start_date": "September 2015",
    "end_date": "July 2016",
    "projects": [
      {
        "title": "Adapt Maintainer",
        "description": "A natural language parsing framework, incorporated into Mycroft.ai when I joined the project.",
        "start_date": "December 2013",
        "end_date": null,
        "technologies": [
          "python"
        ]
      },
      {
        "title": "Software Development Lead",
        "description": "Greenfield development. Building platform level components, distributed architecture, and packaging and distribution of binaries.",
        "start_date": "September 2015",
        "end_date": null,
        "technologies": [
          "python",
          "PocketSphinx",
          "Raspberry PI",
          "Ubuntu/Debian",
          "Jenkins"
        ]
      }
    ]
  },
  {
    "employer": "iSpot.tv",
    "employer_image": "img/ispot.png",
    "title": "Senior Software Engineer - Big Data Lead",
    "start_date": "July 2014",
    "end_date": "July 2015",
    "projects": [
      {
        "title": "Social Engagement",
        "description": "Built and refactored services for collecting social media interactions and associating them with TV ad airings. Focused on reliability, reproducibility, and horizontal scalability.",
        "start_date": "July 2014",
        "end_date": null,
        "technologies": [
          "java",
          "spring",
          "bash",
          "MySQL"
        ]
      },
      {
        "title": "Audience Team Lead",
        "description": "Greenfield development. Ingests 30MM rows of data from Smart TV devices daily, cross references the data with iSpot's authoratative catalog of ad airings.",
        "start_date": "December 2014",
        "end_date": null,
        "technologies": [
          "python",
          "Elastic Map Reduce",
          "MRJob",
          "S3",
          "MySQL",
          "bash"
        ]
      }
    ]
  },
  {
    "employer": "hulu",
    "employer_image": "img/hulu.png",
    "title": "Senior Software Developer",
    "start_date": "June 2013",
    "end_date": "July 2014",
    "projects": [
      {
        "title": "Mozart",
        "description": "An intelligent caching proxy layer, orchestrating requests between all hulu clients and several backend services with a single, sane API.",
        "start_date": "June 2013",
        "end_date": "July 2014",
        "technologies": [
          "node.js",
          "bash",
          "python",
          "zookeeper",
          "redis"
        ]
      },
      {
        "title": "Ecco/Terra",
        "description": "Ecco and Terra are build/deploy infrastructure-as-a-service (respectively) for server-deployed applications. It provides multi-package version management, hierarchical organization of hosts, deployment history, and configurable rolling deployments.",
        "start_date": "August 2013",
        "end_date": "July 2014",
        "technologies": [
          "MySQL",
          "python",
          "sqlalchemy",
          "twitter-bootstrap",
          "jenkins",
          "salt",
          "zookeeper"
        ]
      }
    ]
  },
  {
    "employer": "343 Industries - Microsoft",
    "employer_image": "img/microsoft.png",
    "title": "Software Development Engineer II",
    "start_date": "January 2013",
    "end_date": "June 2013",
    "projects": [
      {
        "title": "UGC",
        "description": "Services supporting User Generated Content for Halo 4, including ingestion, indexing, and search.",
        "start_date": "January 2013",
        "end_date": "June 2013",
        "technologies": [
          "C#",
          "Orleans Framework",
          "Azure - Storage"
        ]
      }
    ]
  },
  {
    "employer": "hulu",
    "employer_image": "img/hulu.png",
    "title": "Software Developer",
    "start_date": "June 2012",
    "end_date": "January 2013",
    "projects": [
      {
        "title": "Bender",
        "description": "An automation framework for testing the hulu plus app on living room devices (ex: PS3), including automating app build/install/hardware provisioning.",
        "start_date": "June 2012",
        "end_date": "August 2012",
        "technologies": [
          "ruby",
          "java"
        ]
      },
      {
        "title": "Mozart",
        "description": "An intelligent caching proxy layer, orchestrating requests between all hulu clients and several backend services with a single, sane API.",
        "start_date": "August 2012",
        "end_date": "January 2012",
        "technologies": [
          "node.js",
          "bash",
          "chef"
        ]
      },
      {
        "title": "hammer",
        "description": "CMS for hulu's internal editorial team, allowing for preview, drafts, and one-click publishing.",
        "start_date": "September 2012",
        "end_date": "January 2013",
        "technologies": [
          "python",
          "twitter-bootstrap",
          "mongodb"
        ]
      }
    ]
  },
  {
    "employer": "Amazon",
    "employer_image": "img/amazon.png",
    "title": "Software Development Engineer II",
    "start_date": "February 2010",
    "end_date": "June 2012",
    "projects": [
      {
        "title": "AWS - S3 Access Team",
        "description": "The S3 Access Team owns, maintains, and extends the S3 API, and owns several components of the durability workflow. Most notably, I designed, implemented, and deployed the S3 Website feature.",
        "start_date": "February 2010",
        "end_date": "June 2011",
        "technologies": [
          "java",
          "tomcat",
          "bash"
        ]
      },
      {
        "title": "Fire Phone - 3D UX Prototyping",
        "description": "The Euclid team built initial prototypes proving out conceptual 3D user interfaces, including replacing key components of AOSP. My work focused on replacing InputDispatcher with a version that provided high-performance and direct access to input (prior to entering managed code).",
        "start_date": "June 2011",
        "end_date": "October 2011",
        "technologies": [
          "c++",
          "java",
          "android"
        ]
      },
      {
        "title": "Amazon Echo - Prototype Platform Lead",
        "description": "The Prototype Platform built Natural Language parsing, training, and data collection tools to support application developers while recently acqui-hired R&D teams ramped up. By defining robust interfaces and competent english-language systems, the platform allowed application and product developers to build fully functional systems, and allowed for a hot-swap replacement of alternative NLP implementations at a later date. As the founding member of this team, I wrote the initial parsing and intent determination algorithms, and later led a team of two other engineers.",
        "start_date": "October 2011",
        "end_date": "June 2012",
        "technologies": [
          "java",
          "tomcat",
          "genetic algorithms"
        ]
      }
    ]
  },
  {
    "employer": "Siri",
    "employer_image": "img/siri.jpg",
    "title": "Software Engineer",
    "start_date": "February 2008",
    "end_date": "February 2010",
    "projects": [
      {
        "title": "First Engineer",
        "description": "As the first engineering hire, I had the opportunity to work on the full Siri stack. Towards the end of my tenure, I owned the deployment and live data update pipelines.",
        "start_date": "February 2008",
        "end_date": "February 2010",
        "technologies": [
          "MySQL",
          "java",
          "hibernate",
          "lucene/solr",
          "bash",
          "pound",
          "JBoss Cache"
        ]
      }
    ]
  },
  {
    "employer": "SRI International, Artificial Intelligence Center",
    "employer_image": "img/sri.png",
    "title": "Software Engineer",
    "start_date": "January 2007",
    "end_date": "February 2008",
    "projects": [
      {
        "title": "CALO Express",
        "description": "A productization of the CALO project, built as an Outlook plugin. I joined the project late, and focused on tracking down bugs around process management. I also performed on-site customer installs at government facilities.",
        "start_date": "January 2007",
        "end_date": "August 2007",
        "technologies": [
          "C#"
        ]
      },
      {
        "title": "CALO News",
        "description": "An RSS subscription and notification system that learned as users read/categorized documents. The knowledge learned from observation was then used to prioritize news items.",
        "start_date": "August 2007",
        "end_date": "February 2008",
        "technologies": [
          "java",
          "javascript",
          "html/css"
        ]
      },
      {
        "title": "SourceMix",
        "description": "A collaborative, server-side javascript development environment and code execution engine.",
        "start_date": "August 2007",
        "end_date": "February 2008",
        "technologies": [
          "java",
          "javascript",
          "html/css"
        ]
      }
    ]
  },
  {
    "employer": "Soft Dev Systems ",
    "employer_image": "img/softdev.png",
    "title": "Software Engineer",
    "start_date": "May 2006",
    "end_date": "January 2007",
    "projects": [
      {
        "title": "Legacy Systems Maintenance",
        "description": "I maintained and updated a legacy automated meter reading system for gas and electric power meters manufactured by Itron.",
        "start_date": "May 2006",
        "end_date": "January 2007",
        "technologies": [
          "C#",
          "Windows Mobile 6"
        ]
      }
    ]
  }
]
